HW3
…
The track with the most records according to the data that shows the most records at each track is Toad’s Turnpike with 124.

Question 4

summary_threelapsbytrack <- three_laps %>% 
  group_by(player, track) %>% 
  summarize(count = n())

`summarise()` has grouped output by 'player'. You can override using the
`.groups` argument.

summary_threelapsbytrack %>%
arrange(desc(count))

# A tibble: 306 × 3
# Groups:   player [60]
   player   track                 count
   <chr>    <chr>                 <int>
 1 Penev    Choco Mountain           26
 2 Lacey    D.K.'s Jungle Parkway    24
 3 abney317 Rainbow Road             21
 4 MR       Toad's Turnpike          20
 5 MR       Frappe Snowland          18
 6 Penev    Toad's Turnpike          18
 7 MR       Sherbet Land             16
 8 abney317 Kalimari Desert          16
 9 MR       Banshee Boardwalk        15
10 Penev    Rainbow Road             15
# ℹ 296 more rows
…
The new variable is created for records held for 100 days or longer.

summary_recordhundred <- recordhundred %>%
  rename( record_hund = record_duration) %>%
  group_by(player) %>%
  arrange(desc(record_hund)) %>%
  select(player) %>%
   summarize(record_hund = n()) 

summary_recordhundred

# A tibble: 42 × 2
   player   record_hund
   <chr>          <int>
 1 Alex G             1
 2 Ben M              7
 3 Booth             17
 4 Dan               21
 5 Daniel L           1
 6 David B            1
 7 Eddie T            2
 8 Greg I            12
 9 Gregg G            1
10 Habrich            1
# ℹ 32 more rows

summary_recordhundred %>%
  arrange(desc(record_hund))

# A tibble: 42 × 2
   player   record_hund
   <chr>          <int>
 1 MR                81
 2 MJ                50
 3 Penev             27
 4 VAJ               26
 5 abney317          26
 6 Zwartjes          25
 7 Lacey             23
 8 Dan               21
 9 Karlo             18
10 Booth             17
# ℹ 32 more rows
…
