HW4
…
ℹ Use `spec()` to retrieve the full column specification for this data.
ℹ Specify the column types or set `show_col_types = FALSE` to quiet this message.

Here, I have installed the raw data and passed it as an argument.

Question 2

nfl_sal_tidy <- nfl_sal %>% 
  pivot_longer(names_to = "position", 
               values_to = "salary",
               cols = Cornerback:`Wide Receiver`)
nfl_sal_tidy

# A tibble: 8,000 × 3
    year position            salary
   <dbl> <chr>                <dbl>
 1  2011 Cornerback        11265916
 2  2011 Defensive Lineman 17818000
 3  2011 Linebacker        16420000
 4  2011 Offensive Lineman 15960000
 5  2011 Quarterback       17228125
 6  2011 Running Back      12955000
 7  2011 Safety             8871428
 8  2011 Special Teamer     4300000
 9  2011 Tight End          8734375
10  2011 Wide Receiver     16250000
# ℹ 7,990 more rows
…
Now, I have used pivot_longer to make a histopgram for each year. The salaries of NFL Quarterbacks increases over the years from 2011-2018. Also, in each individual year, the amount of Quarterbacks getting paid a higher amount of salary increases over time.

Question 4

summary_nfl_sal <- nfl_sal_tidy %>% 
  group_by(position, year) %>% 
  summarize(salary= mean(salary, na.rm = TRUE))

`summarise()` has grouped output by 'position'. You can override using the
`.groups` argument.

summary_nfl_sal

# A tibble: 80 × 3
# Groups:   position [10]
   position           year   salary
   <chr>             <dbl>    <dbl>
 1 Cornerback         2011 3037766.
 2 Cornerback         2012 3132916.
 3 Cornerback         2013 2901798.
 4 Cornerback         2014 3038278.
 5 Cornerback         2015 3758543.
 6 Cornerback         2016 4201470.
 7 Cornerback         2017 4125692.
 8 Cornerback         2018 4659704.
 9 Defensive Lineman  2011 4306995.
10 Defensive Lineman  2012 4693730.
# ℹ 70 more rows
…
